<?xml version="1.0" encoding="UTF-8" standalone="no"?>
<!-- Created with Inkscape (http://www.inkscape.org/) -->

<svg
   inkscape:export-ydpi="96"
   inkscape:export-xdpi="96"
   inkscape:export-filename="icons/hicolor/scalable/apps/io.sam.Boards.svg"
   width="128"
   height="128"
   id="svg11300"
   sodipodi:version="0.32"
   inkscape:version="1.2 (dc2aedaf03, 2022-05-15)"
   sodipodi:docname="icon mockups.svg"
   inkscape:output_extension="org.inkscape.output.svg.inkscape"
   version="1.0"
   style="display:inline;enable-background:new"
   viewBox="0 0 128 128"
   xmlns:inkscape="http://www.inkscape.org/namespaces/inkscape"
   xmlns:sodipodi="http://sodipodi.sourceforge.net/DTD/sodipodi-0.dtd"
   xmlns="http://www.w3.org/2000/svg"
   xmlns:svg="http://www.w3.org/2000/svg"
   xmlns:rdf="http://www.w3.org/1999/02/22-rdf-syntax-ns#"
   xmlns:cc="http://creativecommons.org/ns#"
   xmlns:dc="http://purl.org/dc/elements/1.1/">
  <title
     id="title4162">Adwaita Icon Template</title>
  <defs
     id="defs3" />
  <sodipodi:namedview
     stroke="#ef2929"
     fill="#f57900"
     id="base"
     pagecolor="#ffffff"
     bordercolor="#666666"
     borderopacity="0.25490196"
     inkscape:pageopacity="0.0"
     inkscape:pageshadow="2"
     inkscape:zoom="4.0031529"
     inkscape:cx="73.816816"
     inkscape:cy="53.95747"
     inkscape:current-layer="layer3"
     showgrid="false"
     inkscape:grid-bbox="true"
     inkscape:document-units="px"
     inkscape:showpageshadow="false"
     inkscape:window-width="1920"
     inkscape:window-height="1011"
     inkscape:window-x="0"
     inkscape:window-y="0"
     width="400px"
     height="300px"
     inkscape:snap-nodes="true"
     inkscape:snap-bbox="true"
     objecttolerance="7"
     gridtolerance="12"
     guidetolerance="13"
     inkscape:window-maximized="1"
     inkscape:pagecheckerboard="false"
     showguides="false"
     inkscape:guide-bbox="true"
     inkscape:locked="false"
     inkscape:measure-start="0,0"
     inkscape:measure-end="0,0"
     inkscape:object-nodes="true"
     inkscape:bbox-nodes="true"
     inkscape:snap-global="true"
     inkscape:object-paths="true"
     inkscape:snap-intersection-paths="true"
     inkscape:snap-bbox-edge-midpoints="true"
     inkscape:snap-bbox-midpoints="true"
     showborder="false"
     inkscape:snap-center="true"
     inkscape:snap-object-midpoints="true"
     inkscape:snap-midpoints="true"
     inkscape:snap-smooth-nodes="true"
     inkscape:snap-text-baseline="true"
     inkscape:deskcolor="#d1d1d1">
    <inkscape:grid
       type="xygrid"
       id="grid5883"
       spacingx="2"
       spacingy="2"
       enabled="true"
       visible="true"
       empspacing="4"
       originx="0"
       originy="0" />
    <sodipodi:guide
       position="64,8"
       orientation="0,1"
       id="guide1073"
       inkscape:locked="false"
       inkscape:label=""
       inkscape:color="rgb(0,0,255)" />
    <sodipodi:guide
       position="12,64"
       orientation="1,0"
       id="guide1075"
       inkscape:locked="false"
       inkscape:label=""
       inkscape:color="rgb(0,0,255)" />
    <sodipodi:guide
       position="64,104"
       orientation="0,1"
       id="guide1099"
       inkscape:locked="false"
       inkscape:label=""
       inkscape:color="rgb(0,0,255)" />
    <sodipodi:guide
       position="64,128"
       orientation="0,1"
       id="guide993"
       inkscape:locked="false"
       inkscape:label=""
       inkscape:color="rgb(0,0,255)" />
    <sodipodi:guide
       position="104,64"
       orientation="1,0"
       id="guide995"
       inkscape:locked="false"
       inkscape:label=""
       inkscape:color="rgb(0,0,255)" />
    <sodipodi:guide
       position="9.2651362e-08,64"
       orientation="1,0"
       id="guide867"
       inkscape:locked="false"
       inkscape:label=""
       inkscape:color="rgb(0,0,255)" />
    <sodipodi:guide
       position="120,64"
       orientation="1,0"
       id="guide869"
       inkscape:locked="false"
       inkscape:label=""
       inkscape:color="rgb(0,0,255)" />
    <sodipodi:guide
       position="64,116"
       orientation="0,1"
       id="guide871"
       inkscape:locked="false"
       inkscape:label=""
       inkscape:color="rgb(0,0,255)" />
    <inkscape:grid
       type="xygrid"
       id="grid873"
       spacingx="1"
       spacingy="1"
       empspacing="8"
       color="#000000"
       opacity="0.49019608"
       empcolor="#000000"
       empopacity="0.08627451"
       dotted="true" />
    <sodipodi:guide
       position="24,64"
       orientation="1,0"
       id="guide877"
       inkscape:locked="false"
       inkscape:label=""
       inkscape:color="rgb(0,0,255)" />
    <sodipodi:guide
       position="116,64"
       orientation="1,0"
       id="guide879"
       inkscape:locked="false"
       inkscape:label=""
       inkscape:color="rgb(0,0,255)" />
    <sodipodi:guide
       position="64,120"
       orientation="0,1"
       id="guide881"
       inkscape:locked="false"
       inkscape:label=""
       inkscape:color="rgb(0,0,255)" />
    <sodipodi:guide
       position="64,12"
       orientation="0,1"
       id="guide883"
       inkscape:locked="false"
       inkscape:label=""
       inkscape:color="rgb(0,0,255)" />
    <sodipodi:guide
       position="8,64"
       orientation="1,0"
       id="guide885"
       inkscape:locked="false"
       inkscape:label=""
       inkscape:color="rgb(0,0,255)" />
    <sodipodi:guide
       position="128,64"
       orientation="1,0"
       id="guide887"
       inkscape:locked="false"
       inkscape:label=""
       inkscape:color="rgb(0,0,255)" />
    <sodipodi:guide
       position="64,0"
       orientation="0,1"
       id="guide897"
       inkscape:locked="false"
       inkscape:label=""
       inkscape:color="rgb(0,0,255)" />
    <sodipodi:guide
       position="64,24"
       orientation="0,1"
       id="guide899"
       inkscape:locked="false"
       inkscape:label=""
       inkscape:color="rgb(0,0,255)" />
    <sodipodi:guide
       position="256,256"
       orientation="-0.70710678,0.70710678"
       id="guide950"
       inkscape:locked="false"
       inkscape:label=""
       inkscape:color="rgb(0,0,255)" />
    <sodipodi:guide
       position="64,64"
       orientation="0.70710678,0.70710678"
       id="guide952"
       inkscape:locked="false"
       inkscape:label=""
       inkscape:color="rgb(0,0,255)" />
  </sodipodi:namedview>
  <metadata
     id="metadata4">
    <rdf:RDF>
      <cc:Work
         rdf:about="">
        <dc:format>image/svg+xml</dc:format>
        <dc:type
           rdf:resource="http://purl.org/dc/dcmitype/StillImage" />
        <dc:creator>
          <cc:Agent>
            <dc:title>GNOME Design Team</dc:title>
          </cc:Agent>
        </dc:creator>
        <dc:source />
        <cc:license
           rdf:resource="http://creativecommons.org/licenses/by-sa/4.0/" />
        <dc:title>Adwaita Icon Template</dc:title>
        <dc:subject>
          <rdf:Bag />
        </dc:subject>
        <dc:date />
        <dc:rights>
          <cc:Agent>
            <dc:title />
          </cc:Agent>
        </dc:rights>
        <dc:publisher>
          <cc:Agent>
            <dc:title />
          </cc:Agent>
        </dc:publisher>
        <dc:identifier />
        <dc:relation />
        <dc:language />
        <dc:coverage />
        <dc:description />
        <dc:contributor>
          <cc:Agent>
            <dc:title />
          </cc:Agent>
        </dc:contributor>
      </cc:Work>
      <cc:License
         rdf:about="http://creativecommons.org/licenses/by-sa/4.0/">
        <cc:permits
           rdf:resource="http://creativecommons.org/ns#Reproduction" />
        <cc:permits
           rdf:resource="http://creativecommons.org/ns#Distribution" />
        <cc:requires
           rdf:resource="http://creativecommons.org/ns#Notice" />
        <cc:requires
           rdf:resource="http://creativecommons.org/ns#Attribution" />
        <cc:permits
           rdf:resource="http://creativecommons.org/ns#DerivativeWorks" />
        <cc:requires
           rdf:resource="http://creativecommons.org/ns#ShareAlike" />
      </cc:License>
    </rdf:RDF>
  </metadata>
  <g
     inkscape:groupmode="layer"
     id="layer4"
     inkscape:label="hairlines 1"
     style="display:inline;enable-background:new"
     transform="translate(0,-172)">
    <rect
       style="opacity:1;fill:#865e3c;stroke:#77767b;stroke-width:0.25;stroke-linecap:round;stroke-linejoin:round;stroke-dasharray:none;stroke-dashoffset:7.55906;paint-order:markers fill stroke"
       id="rect1746"
       width="87.01403"
       height="111.01444"
       x="203.01746"
       y="-117.83003"
       rx="6.7577467"
       transform="rotate(89.526046)" />
    <rect
       style="opacity:1;fill:#b5835a;stroke:#77767b;stroke-width:0.25;stroke-linecap:round;stroke-linejoin:round;stroke-dasharray:none;stroke-dashoffset:7.55906;paint-order:markers fill stroke"
       id="rect787"
       width="87.01403"
       height="111.01444"
       x="201.01752"
       y="-117.84657"
       rx="6.7577467"
       transform="rotate(89.526046)" />
    <rect
       style="opacity:1;fill:#f6f5f4;stroke:#77767b;stroke-width:0.25;stroke-linecap:round;stroke-linejoin:round;stroke-dasharray:none;stroke-dashoffset:7.55906;paint-order:markers fill stroke"
       id="rect843"
       width="78.784966"
       height="100.51562"
       x="205.13205"
       y="-112.59716"
       rx="6.1186552"
       transform="rotate(89.526046)" />
    <rect
       style="opacity:1;fill:#deddda;stroke:none;stroke-width:0.100013;stroke-linecap:round;stroke-linejoin:round;stroke-dasharray:none;stroke-dashoffset:7.55906;paint-order:markers fill stroke"
       id="rect1754"
       width="55.959194"
       height="23.15399"
       x="218.46355"
       y="-45.60585"
       rx="3"
       transform="matrix(0.00268192,0.9999964,-0.99967465,0.0255069,0,0)" />
    <rect
       style="opacity:1;fill:#613583;stroke:#000000;stroke-width:0.100013;stroke-linecap:round;stroke-linejoin:round;stroke-dasharray:none;stroke-dashoffset:7.55906;paint-order:markers fill stroke"
       id="rect1748"
       width="55.959194"
       height="23.15399"
       x="217.61784"
       y="-44.927494"
       rx="3"
       transform="matrix(0.00268192,0.9999964,-0.99967465,0.0255069,0,0)" />
    <rect
       style="opacity:1;fill:#deddda;stroke:none;stroke-width:0.100001;stroke-linecap:round;stroke-linejoin:round;stroke-dasharray:none;stroke-dashoffset:7.55906;paint-order:markers fill stroke"
       id="rect1756"
       width="23.809368"
       height="23.159899"
       x="218.1723"
       y="-74.811394"
       rx="3"
       transform="matrix(0.00630661,0.99998011,-0.99994114,0.01084966,0,0)" />
    <rect
       style="opacity:1;fill:#c061cb;stroke:#000000;stroke-width:0.100013;stroke-linecap:round;stroke-linejoin:round;stroke-dasharray:none;stroke-dashoffset:7.55906;paint-order:markers fill stroke"
       id="rect1400"
       width="55.959194"
       height="23.15399"
       x="217.06494"
       y="-44.928974"
       rx="3"
       transform="matrix(0.00268192,0.9999964,-0.99967465,0.0255069,0,0)" />
    <rect
       style="opacity:1;fill:#deddda;stroke:none;stroke-width:0.100005;stroke-linecap:round;stroke-linejoin:round;stroke-dasharray:none;stroke-dashoffset:7.55906;paint-order:markers fill stroke"
       id="rect1758"
       width="40.080765"
       height="23.162399"
       x="219.26865"
       y="-105.37901"
       rx="3"
       transform="matrix(0.00374635,0.99999298,-0.99983322,0.01826261,0,0)" />
    <rect
       style="opacity:1;fill:#a51d2d;stroke:#000000;stroke-width:0.100001;stroke-linecap:round;stroke-linejoin:round;stroke-dasharray:none;stroke-dashoffset:7.55906;paint-order:markers fill stroke"
       id="rect1750"
       width="23.809368"
       height="23.159899"
       x="217.33656"
       y="-74.136223"
       rx="3"
       transform="matrix(0.00630661,0.99998011,-0.99994114,0.01084966,0,0)" />
    <rect
       style="opacity:1;fill:#ed333b;stroke:#000000;stroke-width:0.100001;stroke-linecap:round;stroke-linejoin:round;stroke-dasharray:none;stroke-dashoffset:7.55906;paint-order:markers fill stroke"
       id="rect1402"
       width="23.809368"
       height="23.159899"
       x="216.78365"
       y="-74.139709"
       rx="3"
       transform="matrix(0.00630661,0.99998011,-0.99994114,0.01084966,0,0)" />
    <rect
       style="opacity:1;fill:#26a269;stroke:#000000;stroke-width:0.100005;stroke-linecap:round;stroke-linejoin:round;stroke-dasharray:none;stroke-dashoffset:7.55906;paint-order:markers fill stroke"
       id="rect1752"
       width="40.080765"
       height="23.162399"
       x="218.42789"
       y="-104.70163"
       rx="3"
       transform="matrix(0.00374635,0.99999298,-0.99983322,0.01826261,0,0)" />
    <rect
       style="opacity:1;fill:#57e389;stroke:#000000;stroke-width:0.100005;stroke-linecap:round;stroke-linejoin:round;stroke-dasharray:none;stroke-dashoffset:7.55906;paint-order:markers fill stroke"
       id="rect1404"
       width="40.080765"
       height="23.162399"
       x="217.87497"
       y="-104.7037"
       rx="3"
       transform="matrix(0.00374635,0.99999298,-0.99983322,0.01826261,0,0)" />
    <g
       id="g1744"
       transform="matrix(0.67071855,0,0,0.67071855,21.434918,66.342195)">
      <path
         id="rect1518"
         style="opacity:1;fill:#5e5c64;fill-opacity:1;stroke:none;stroke-width:0.134884;stroke-linecap:round;stroke-linejoin:round;stroke-dasharray:none;stroke-dashoffset:7.55906;paint-order:markers fill stroke"
         d="m 59.607422,185.09766 c -5.826685,0 -10.517578,4.014 -10.517578,9 0,0.0393 0.0033,0.078 0.0039,0.11718 l -10.087891,0.0293 c -2.769977,0.009 -4.954627,1.91867 -4.90039,4.28125 l 0.183593,8.08399 h 59.603516 l -0.191406,-8.26368 c -0.05424,-2.36256 -2.327679,-4.2563 -5.097656,-4.24804 l -9.513672,0.0273 c 3.1e-5,-0.009 0,-0.0182 0,-0.0273 0,-4.986 -4.68894,-9 -10.515625,-9 z" />
      <rect
         style="opacity:1;fill:#c0bfbc;fill-opacity:1;stroke:none;stroke-width:0.0860219;stroke-linecap:round;stroke-linejoin:round;stroke-dasharray:none;stroke-dashoffset:7.55906;paint-order:markers fill stroke"
         id="rect1627"
         width="59.603516"
         height="2.7530367"
         x="34.289062"
         y="206.6089" />
      <circle
         style="opacity:1;fill:#c0bfbc;fill-opacity:1;stroke:none;stroke-width:0.355104;stroke-linecap:round;stroke-linejoin:round;stroke-dasharray:none;stroke-dashoffset:7.55906;paint-order:markers fill stroke"
         id="path1739"
         cx="63.998528"
         cy="196.01353"
         r="4" />
    </g>
  </g>
</svg>
